\relax 
\@writefile{loa}{\contentsline {algorithm}{\numberline {1}{\ignorespaces Fitnesz f\IeC {\"u}ggv\IeC {\'e}ny}}{1}\protected@file@percent }
\newlabel{fitnesz}{{1}{1}}
\@writefile{loa}{\contentsline {algorithm}{\numberline {2}{\ignorespaces Validate}}{2}\protected@file@percent }
\newlabel{fitnesz}{{2}{2}}
\@writefile{loa}{\contentsline {algorithm}{\numberline {3}{\ignorespaces Tournament Szelekci\IeC {\'o}}}{2}\protected@file@percent }
\newlabel{tournid}{{3}{2}}
\@writefile{loa}{\contentsline {algorithm}{\numberline {4}{\ignorespaces Rulett ker\IeC {\'e}k szelekci\IeC {\'o}}}{2}\protected@file@percent }
\newlabel{rouletteid}{{4}{2}}
